<?xml version="1.0" encoding="UTF-8" standalone="no"?>
<svg
   id="root"
   version="1.1"
   viewBox="0 0 125 10"
   height="10mm"
   width="125mm"
   sodipodi:docname="view-title.svg"
   inkscape:version="1.3 (0e150ed6c4, 2023-07-21)"
   xmlns:inkscape="http://www.inkscape.org/namespaces/inkscape"
   xmlns:sodipodi="http://sodipodi.sourceforge.net/DTD/sodipodi-0.dtd"
   xmlns="http://www.w3.org/2000/svg"
   xmlns:svg="http://www.w3.org/2000/svg"
   xmlns:rdf="http://www.w3.org/1999/02/22-rdf-syntax-ns#"
   xmlns:cc="http://creativecommons.org/ns#"
   xmlns:dc="http://purl.org/dc/elements/1.1/">
  <sodipodi:namedview
     id="namedview125455"
     pagecolor="#505050"
     bordercolor="#ffffff"
     borderopacity="1"
     inkscape:showpageshadow="0"
     inkscape:pageopacity="0"
     inkscape:pagecheckerboard="1"
     inkscape:deskcolor="#505050"
     inkscape:document-units="mm"
     showgrid="false"
     inkscape:zoom="1.1318865"
     inkscape:cx="180.23009"
     inkscape:cy="39.314898"
     inkscape:window-width="1920"
     inkscape:window-height="1017"
     inkscape:window-x="-8"
     inkscape:window-y="-8"
     inkscape:window-maximized="1"
     inkscape:current-layer="layer1" />
  <defs
     id="defs2" />
  <metadata
     id="metadata5">
    <rdf:RDF>
      <cc:Work
         rdf:about="">
        <dc:format>image/svg+xml</dc:format>
        <dc:type
           rdf:resource="http://purl.org/dc/dcmitype/StillImage" />
      </cc:Work>
    </rdf:RDF>
  </metadata>
  <g
     transform="translate(-27.82024,-96.649986)"
     id="layer1">
    <path
       id="path853-7"
       style="fill:none;fill-opacity:1;stroke:#2c5573;stroke-width:0.220526;stroke-linejoin:round;stroke-miterlimit:4;stroke-dasharray:none;stroke-opacity:1"
       d="m 31.706665,98.08474 c -1.969044,6.8e-5 -3.565194,1.596386 -3.565055,3.56543 6.5e-5,1.9689 1.596156,3.56499 3.565055,3.56506 0.04726,-7.3e-4 0.0945,-0.002 0.141691,-0.005 0.01356,0.003 0.02761,0.005 0.04217,0.005 h 16.988117 0.0076 c 0.0014,0 0.0028,-3.5e-4 0.0042,-3.8e-4 1.96415,-0.007 3.553014,-1.60052 3.553278,-3.56468 1.39e-4,-1.969043 -1.596011,-3.565362 -3.565054,-3.56543 -0.04777,7.07e-4 -0.09551,0.0024 -0.14321,0.005 H 31.896219 c -0.06313,-0.0033 -0.126336,-0.005 -0.189554,-0.005 z"
       sodipodi:nodetypes="ccccscscccccc" />
    <path
       id="path855"
       d="m 52.443721,101.64999 99.999999,-1e-5"
       style="fill:none;fill-rule:evenodd;stroke:#2c5573;stroke-width:0.264574px;stroke-linecap:butt;stroke-linejoin:miter;stroke-opacity:1"
       sodipodi:nodetypes="cc" />
    <text
       id="text859"
       y="103.49316"
       x="144.04343"
       style="font-style:normal;font-variant:normal;font-weight:normal;font-stretch:normal;font-size:24.8028px;line-height:125%;font-family:Arial;-inkscape-font-specification:Arial;letter-spacing:0px;word-spacing:0px;fill:#000000;fill-opacity:1;stroke:none;stroke-width:0.264583px;stroke-linecap:butt;stroke-linejoin:miter;stroke-opacity:1"
       xml:space="preserve"><tspan
         style="font-style:normal;font-variant:normal;font-weight:normal;font-stretch:normal;font-size:4.96055px;font-family:'Century Gothic';-inkscape-font-specification:'Century Gothic';text-align:center;text-anchor:middle;fill:#2c5573;fill-opacity:1;stroke-width:0.264583px"
         y="103.49316"
         x="40.611782"
         id="tspan857">{{Identification}}/{{SheetIdentification}}</tspan></text>
    <text
       xml:space="preserve"
       style="font-style:normal;font-variant:normal;font-weight:normal;font-stretch:normal;font-size:17.7163px;line-height:125%;font-family:Arial;-inkscape-font-specification:Arial;letter-spacing:0px;word-spacing:0px;fill:#000000;fill-opacity:1;stroke:none;stroke-width:0.264583px;stroke-linecap:butt;stroke-linejoin:miter;stroke-opacity:1"
       x="53.370708"
       y="100.19173"
       id="text863"><tspan
         id="tspan861"
         x="53.370708"
         y="100.19173"
         style="font-style:normal;font-variant:normal;font-weight:normal;font-stretch:normal;font-size:3.54325px;font-family:'Century Gothic';-inkscape-font-specification:'Century Gothic';text-align:start;text-anchor:start;fill:#2c5573;fill-opacity:1;stroke-width:0.264583px">{{Name}}</tspan></text>
    <text
       id="text867"
       y="105.0553"
       x="53.527016"
       style="font-style:normal;font-variant:normal;font-weight:normal;font-stretch:normal;font-size:17.7163px;line-height:125%;font-family:Arial;-inkscape-font-specification:Arial;letter-spacing:0px;word-spacing:0px;fill:#000000;fill-opacity:1;stroke:none;stroke-width:0.264583px;stroke-linecap:butt;stroke-linejoin:miter;stroke-opacity:1"
       xml:space="preserve"><tspan
         style="font-style:normal;font-variant:normal;font-weight:normal;font-stretch:normal;font-size:3.54325px;font-family:'Century Gothic';-inkscape-font-specification:'Century Gothic';text-align:start;text-anchor:start;fill:#2c5573;fill-opacity:1;stroke-width:0.264583px"
         y="105.0553"
         x="53.527016"
         id="tspan865">{{Scale}}</tspan></text>
  </g>
</svg>
