<svg xmlns="http://www.w3.org/2000/svg" xmlns:xlink="http://www.w3.org/1999/xlink" xmlns:ifc="http://www.ifcopenshell.org/ns" width="1808.33mm" height="743.543mm" viewBox="0 0 1808.33 743.543">
    <defs>
        <marker id="arrowend" markerWidth="10" markerHeight="7" refX="10" refY="3.5" orient="auto">
          <polygon points="0 0, 10 3.5, 0 7"/>
        </marker>
        <marker id="arrowstart" markerWidth="10" markerHeight="7" refX="0" refY="3.5" orient="auto">
          <polygon points="10 0, 0 3.5, 10 7"/>
        </marker>
    </defs>
    <g ifc:name="Elevation SECTION - NORTH" class="section" ifc:plane="[[1.000000,0.000000,0.000000,0.000000],[0.000000,0.000000,-1.000000,7.495208],[0.000000,1.000000,0.000000,-0.000001],[0.000000,0.000000,0.000000,1.000000]]" ifc:matrix3="[[83.333336,0.000000,7701.294342],[0.000000,83.333336,598.542500],[0.000000,0.000000,1.000000]]">
        <g class="projection">
            <path d="M829.57,390.315 L819.515,390.315"/>
            <path d="M819.515,598.542 L819.515,390.315"/>
            <path d="M829.57,598.542 L819.515,598.542"/>
            <path d="M829.57,390.315 L829.57,598.542"/>
            <path d="M735.931,598.542 L725.877,598.542"/>
            <path d="M735.931,390.315 L735.931,598.542"/>
            <path d="M735.931,390.315 L725.877,390.315"/>
            <path d="M725.877,598.542 L725.877,390.315"/>
            <path d="M1599.42,598.542 L1599.42,420.742"/>
            <path d="M1575.74,598.542 L1575.74,420.742"/>
            <path d="M1575.74,420.742 L1575.74,420.742"/>
            <path d="M1599.42,598.542 L1599.42,598.542"/>
            <path d="M1599.42,420.742 L1599.42,369.942"/>
            <path d="M1575.74,369.942 L1599.42,369.942"/>
            <path d="M1575.74,420.742 L1575.74,369.942"/>
            <path d="M1599.42,420.742 L1575.74,420.742"/>
            <path d="M1148.21,598.542 L1158.27,598.542"/>
            <path d="M1158.27,598.542 L1158.27,390.315"/>
            <path d="M1148.21,390.315 L1158.27,390.315"/>
            <path d="M1148.21,598.542 L1148.21,390.315"/>
            <path d="M723.252,420.742 L723.252,598.542"/>
            <path d="M735.931,598.542 L735.931,391.638"/>
            <path d="M157.582,598.542 L133.903,598.542"/>
            <path d="M157.582,369.942 L157.582,598.542"/>
            <path d="M157.582,369.942 L133.903,369.942"/>
            <path d="M133.903,598.542 L133.903,369.942"/>
            <path d="M648.31,156.904 L870.4,364.006"/>
            <path d="M653.362,151.485 L875.452,358.588"/>
            <path d="M875.452,358.588 L870.4,364.006"/>
            <path d="M653.362,151.485 L648.31,156.904"/>
            <path d="M649.966,157.269 L649.966,357.993"/>
            <path d="M657.375,157.269 L657.375,357.993"/>
            <path d="M657.375,357.993 L649.966,357.993"/>
            <path d="M657.375,157.269 L649.966,157.269"/>
            <path d="M422.134,258.979 L644.525,357.993"/>
            <path d="M425.183,252.227 L649.966,352.307"/>
            <path d="M651.739,357.993 L651.739,357.993"/>
            <path d="M414.725,251.527 L414.725,357.993"/>
            <path d="M422.134,251.527 L422.134,357.993"/>
            <path d="M422.134,357.993 L414.725,357.993"/>
            <path d="M422.134,251.527 L414.725,251.527"/>
            <path d="M143.972,356.785 L143.972,356.785"/>
            <path d="M870.828,53.9304 L143.972,356.785"/>
            <path d="M148.45,367.531 L143.972,356.785"/>
            <path d="M875.306,64.6766 L148.45,367.531"/>
            <path d="M143.972,356.785 L143.972,356.785"/>
            <path d="M143.972,356.785 L143.972,356.785"/>
            <path d="M875.306,64.6766 L870.828,53.9304"/>
            <path d="M874.533,65.6459 L874.533,357.993"/>
            <path d="M867.124,65.6459 L867.124,357.993"/>
            <path d="M867.124,357.993 L874.533,357.993"/>
            <path d="M867.124,65.6459 L874.533,65.6459"/>
            <path d="M1093.35,156.904 L871.256,364.006"/>
            <path d="M1088.29,151.485 L866.204,358.588"/>
            <path d="M866.204,358.588 L871.256,364.006"/>
            <path d="M1088.29,151.485 L1093.35,156.904"/>
            <path d="M1091.69,157.269 L1091.69,357.993"/>
            <path d="M1084.28,157.269 L1084.28,357.993"/>
            <path d="M1084.28,357.993 L1091.69,357.993"/>
            <path d="M1084.28,157.269 L1091.69,157.269"/>
            <path d="M1319.52,258.979 L1097.13,357.993"/>
            <path d="M1316.47,252.227 L1091.69,352.307"/>
            <path d="M1089.92,357.993 L1089.92,357.993"/>
            <path d="M1326.93,251.527 L1326.93,357.993"/>
            <path d="M1319.52,251.527 L1319.52,357.993"/>
            <path d="M1319.52,357.993 L1326.93,357.993"/>
            <path d="M1319.52,251.527 L1326.93,251.527"/>
            <path d="M870.707,53.8794 L1625.66,368.443"/>
            <path d="M870.828,66.542 L1084.09,155.402"/>
            <path d="M1091.6,158.531 L1570.31,357.993"/>
            <path d="M1597.18,369.187 L1598.99,369.942"/>
            <path d="M1599.42,370.121 L1621.19,379.189"/>
            <path d="M1621.19,379.189 L1625.66,368.443"/>
            <path d="M1625.66,368.443 L1625.66,368.443"/>
            <path d="M1625.66,368.443 L1625.66,368.443"/>
            <path d="M870.707,53.8794 L870.707,53.8794"/>
            <path d="M870.655,54.0022 L870.707,53.8794"/>
            <path d="M144.476,357.993 L1597.18,357.993"/>
            <path d="M144.476,369.635 L1597.18,369.635"/>
            <path d="M1597.18,369.635 L1597.18,357.993"/>
            <path d="M144.476,369.635 L144.476,357.993"/>
            <path d="M143.972,356.785 L143.972,356.785"/>
            <path d="M143.972,356.785 L143.972,356.785"/>
            <path d="M143.972,356.785 L143.972,356.785"/>
            <path d="M143.972,356.785 L143.972,356.785"/>
            <path d="M1625.66,368.443 L1625.66,368.443"/>
            <path d="M1625.66,368.443 L1625.66,368.443"/>
            <path d="M1625.66,368.443 L1625.66,368.443"/>
            <path d="M870.707,53.8794 L870.707,53.8794"/>
            <path d="M870.707,53.8794 L870.707,53.8794"/>
            <path d="M143.972,356.785 L143.972,356.785"/>
            <path d="M143.972,356.785 L143.972,356.785"/>
            <path d="M143.972,356.785 L143.972,356.785"/>
            <path d="M143.972,356.785 L143.972,356.785"/>
            <path d="M1625.66,368.443 L1625.66,368.443"/>
            <path d="M1625.66,368.443 L1625.66,368.443"/>
            <path d="M1625.66,368.443 L1625.66,368.443"/>
            <path d="M870.707,53.8794 L870.707,53.8794"/>
            <path d="M870.707,53.8794 L870.707,53.8794"/>
            <path d="M601.136,390.315 L586.848,390.315"/>
            <path d="M586.848,598.542 L586.848,390.315"/>
            <path d="M601.136,598.542 L586.848,598.542"/>
            <path d="M601.136,390.315 L601.136,598.542"/>
            <path d="M829.57,598.542 L829.57,391.638"/>
            <path d="M883.93,598.542 L883.93,391.638"/>
            <path d="M1575.74,419.568 L1575.74,420.742"/>
            <path d="M1575.74,419.568 L1575.74,420.742"/>
            <path d="M1575.74,420.742 L1575.74,414.392"/>
            <path d="M1575.74,414.392 L1575.74,419.568"/>
            <path d="M1573.62,420.742 L1573.62,419.568"/>
            <path d="M1573.62,419.568 L1573.62,414.392"/>
            <path d="M1573.62,420.742 L1573.62,414.392"/>
            <path d="M1573.62,419.568 L1573.62,420.742"/>
            <path d="M1575.23,414.392 L1575.74,414.392"/>
            <path d="M1575.74,414.392 L1575.74,414.392"/>
            <path d="M1575.23,414.392 L1575.74,414.392"/>
            <path d="M1573.62,414.392 L1573.62,414.392"/>
            <path d="M1573.62,414.392 L1575.23,414.392"/>
            <path d="M1575.74,420.742 L1575.74,414.392"/>
            <path d="M1575.74,414.392 L1573.62,414.392"/>
            <path d="M1573.62,420.742 L1573.62,414.392"/>
            <path d="M1573.7,420.742 L1573.62,414.392"/>
            <path d="M1575.74,420.742 L1575.74,598.542"/>
            <path d="M1573.62,420.742 L1573.62,598.542"/>
            <path d="M1575.74,420.742 L1573.62,598.542"/>
            <path d="M1575.74,420.742 L1575.74,420.742"/>
            <path d="M1575.74,420.742 L1574.05,420.742"/>
            <path d="M1575.74,420.742 L1573.62,420.742"/>
            <path d="M1574.05,420.742 L1573.62,420.742"/>
            <path d="M1573.62,420.742 L1573.62,420.742"/>
            <path d="M1574.05,420.742 L1573.62,420.742"/>
            <path d="M1588.18,414.392 L1588.18,419.568"/>
            <path d="M1588.18,419.568 L1588.18,420.742"/>
            <path d="M1586.06,419.568 L1586.06,414.392"/>
            <path d="M1586.06,420.742 L1586.06,419.568"/>
            <path d="M1588.18,420.742 L1588.18,598.542"/>
            <path d="M1586.06,420.742 L1586.06,598.542"/>
            <path d="M1586.06,598.542 L1588.18,420.742"/>
            <path d="M1588.18,420.742 L1586.48,420.742"/>
            <path d="M1586.48,420.742 L1586.06,420.742"/>
            <path d="M1587.66,414.392 L1588.18,414.392"/>
            <path d="M1586.06,414.392 L1587.66,414.392"/>
            <path d="M1581.83,420.742 L1585.21,420.742"/>
            <path d="M1585.21,420.742 L1586.06,420.742"/>
            <path d="M1585.21,598.542 L1581.83,598.542"/>
            <path d="M1586.06,598.542 L1585.21,598.542"/>
            <path d="M1581.83,456.356 L1581.83,420.742"/>
            <path d="M1581.83,456.356 L1581.83,420.742"/>
            <path d="M1581.83,598.542 L1581.83,456.356"/>
            <path d="M1581.83,420.742 L1581.83,598.542"/>
            <path d="M1586.06,420.742 L1581.83,598.542"/>
            <path d="M1586.06,420.742 L1586.06,562.929"/>
            <path d="M1586.06,420.742 L1586.06,598.542"/>
            <path d="M1586.06,562.929 L1586.06,598.542"/>
            <path d="M1586.06,562.929 L1586.06,598.542"/>
            <path d="M883.93,598.542 L893.985,598.542"/>
            <path d="M893.985,598.542 L893.985,390.315"/>
            <path d="M883.93,390.315 L893.985,390.315"/>
            <path d="M883.93,598.542 L883.93,390.315"/>
            <path d="M142.236,373.382 L142.236,391.638"/>
            <path d="M142.236,391.638 L1591.09,391.638"/>
            <path d="M1591.09,391.638 L1591.09,373.382"/>
            <path d="M142.236,373.382 L1591.09,373.382"/>
            <path d="M142.237,598.542 L142.237,611.242"/>
            <path d="M142.237,611.242 L1599.42,611.242"/>
            <path d="M1599.42,611.242 L1599.42,598.542"/>
            <path d="M142.237,598.542 L1599.42,598.542"/>
            <path d="M1146.1,598.542 L1148.21,598.542"/>
            <path d="M1148.21,414.392 L1148.21,598.542"/>
            <path d="M1148.21,414.392 L1146.1,414.392"/>
            <path d="M1146.1,414.392 L1146.1,598.542"/>
            <path d="M1160.65,414.392 L1158.53,414.392"/>
            <path d="M1158.53,414.392 L1158.53,598.542"/>
            <path d="M1158.53,598.542 L1160.65,598.542"/>
            <path d="M1160.65,414.392 L1160.65,598.542"/>
            <path d="M640.702,414.392 L725.877,414.392"/>
            <path d="M640.702,598.542 L640.702,414.392"/>
            <path d="M647.052,420.742 L647.052,598.542"/>
            <path d="M723.252,420.742 L647.052,420.742"/>
            <path d="M723.252,598.542 L723.252,420.742"/>
        </g>
    <g id="product-b24587f9-92b3-42da-bcaf-9bc68e1a8704-body" class="IfcDoor material-MaterialConstituentSet rPsetCommon-StatusEXISTINGDEMOLISHid775174 material-278854IfcMaterialConstituentSetMaterialConstituentSet278852278853 cut" ifc:name="Door" ifc:guid="2oHOVvahD2sholcyQE6eS4">
            <path d="M1160.7,414.4 L1158.5,414.4 L1158.5,598.5 L1160.7,598.5 Z"/><path d="M1146.1,598.5 L1148.2,598.5 L1148.2,414.4 L1146.1,414.4 Z"/></g>
        <g id="product-e6219719-6513-4dca-8611-4d663a486576-body" class="IfcDoor material-MaterialConstituentSet rPsetCommon-StatusEXISTINGid775461 material-280964IfcMaterialConstituentSetMaterialConstituentSet280965280966 cut" ifc:name="Door" ifc:guid="3c8PSPPHDDoeOHJMOwI6Ls">
            <path d="M1586.1,420.7 L1585.2,420.7 L1581.8,420.7 L1581.8,456.4 L1581.8,598.5 L1585.2,598.5 L1586.1,598.5 L1586.1,562.9 Z"/><path d="M1586.1,420.7 L1586.5,420.7 L1588.2,420.7 L1588.2,419.6 L1588.2,414.4 L1587.7,414.4 L1586.1,414.4 L1586.1,419.6 Z"/><path d="M1574.0,420.7 L1575.7,420.7 L1575.7,419.6 L1575.7,414.4 L1575.2,414.4 L1573.6,414.4 L1573.6,419.6 L1573.6,420.7 Z"/></g>
        <g class="material-379049IfcMaterialLayerSet379050 material-null cut rPsetCommon-StatusEXISTINGid805208 IfcSlab 2kAl7uQC96eQiC3RbUkDDY"><path d="M142.2,598.5 L142.2,611.2 L1599.4,611.2 L1599.4,598.5 Z"/></g><g class="material-null rPsetCommon-StatusEXISTINGDEMOLISHid821155 cut 0GjVqep5z5Kfy9gp20xnEW IfcSlab material-119IfcMaterialLayerSet816258118816249"><path d="M142.2,373.4 L142.2,391.6 L1591.1,391.6 L1591.1,373.4 Z"/></g><g class="1GgXfR3jPAJemtPib5aWO5 rPsetCommon-StatusEXISTINGDEMOLISHid789974 rPsetCommon-StatusEXISTINGDEMOLISHid775929 cut 1CeEnqX21DWgOrGKHfTomO material-327866IfcMaterialLayerSet327862327864327865poche 1U2lFIAIP0ZP1bm6hQEnfw IfcWall material-poche rPsetCommon-StatusEXISTINGDEMOLISHid776777 2aEv1nVQ18GwoVtRU$bCw5 rPsetCommon-StatusEXISTINGDEMOLISHid776717"><path d="M735.9,390.3 L725.9,390.3 L725.9,598.5 L735.9,598.5 Z"/></g><g class="1GgXfR3jPAJemtPib5aWO5 rPsetCommon-StatusEXISTINGDEMOLISHid789974 rPsetCommon-StatusEXISTINGDEMOLISHid775929 cut 1CeEnqX21DWgOrGKHfTomO material-327866IfcMaterialLayerSet327862327864327865poche 1U2lFIAIP0ZP1bm6hQEnfw IfcWall material-poche rPsetCommon-StatusEXISTINGDEMOLISHid776777 2aEv1nVQ18GwoVtRU$bCw5 rPsetCommon-StatusEXISTINGDEMOLISHid776717"><path d="M819.5,598.5 L829.6,598.5 L829.6,390.3 L819.5,390.3 Z"/></g><g class="1GgXfR3jPAJemtPib5aWO5 rPsetCommon-StatusEXISTINGDEMOLISHid789974 rPsetCommon-StatusEXISTINGDEMOLISHid775929 cut 1CeEnqX21DWgOrGKHfTomO material-327866IfcMaterialLayerSet327862327864327865poche 1U2lFIAIP0ZP1bm6hQEnfw IfcWall material-poche rPsetCommon-StatusEXISTINGDEMOLISHid776777 2aEv1nVQ18GwoVtRU$bCw5 rPsetCommon-StatusEXISTINGDEMOLISHid776717"><path d="M894.0,390.3 L883.9,390.3 L883.9,598.5 L894.0,598.5 Z"/></g><g class="1GgXfR3jPAJemtPib5aWO5 rPsetCommon-StatusEXISTINGDEMOLISHid789974 rPsetCommon-StatusEXISTINGDEMOLISHid775929 cut 1CeEnqX21DWgOrGKHfTomO material-327866IfcMaterialLayerSet327862327864327865poche 1U2lFIAIP0ZP1bm6hQEnfw IfcWall material-poche rPsetCommon-StatusEXISTINGDEMOLISHid776777 2aEv1nVQ18GwoVtRU$bCw5 rPsetCommon-StatusEXISTINGDEMOLISHid776717"><path d="M1158.3,390.3 L1148.2,390.3 L1148.2,598.5 L1158.3,598.5 Z"/></g><g class="material-754654IfcMaterialLayerSet754655754656754657poche rPsetCommon-StatusEXISTINGid777349 1lGc3bsmz36Oy6gafZPwug 1QUp8unhzCVgpb460dR0m4 rPsetCommon-StatusEXISTINGid776411 material-758067IfcMaterialLayerSet758068758069758070758141758155poche cut IfcWall material-poche 1z4jE9eD5CjBem_86cEzQE rPsetCommon-StatusEXISTINGid777867"><path d="M1599.4,369.9 L1575.7,369.9 L1575.7,420.7 L1599.4,420.7 Z"/></g><g class="material-754654IfcMaterialLayerSet754655754656754657poche rPsetCommon-StatusEXISTINGid777349 1lGc3bsmz36Oy6gafZPwug 1QUp8unhzCVgpb460dR0m4 rPsetCommon-StatusEXISTINGid776411 material-758067IfcMaterialLayerSet758068758069758070758141758155poche cut IfcWall material-poche 1z4jE9eD5CjBem_86cEzQE rPsetCommon-StatusEXISTINGid777867"><path d="M157.6,369.9 L133.9,369.9 L133.9,598.5 L157.6,598.5 Z"/></g><g class="material-754654IfcMaterialLayerSet754655754656754657poche rPsetCommon-StatusEXISTINGid777349 1lGc3bsmz36Oy6gafZPwug 1QUp8unhzCVgpb460dR0m4 rPsetCommon-StatusEXISTINGid776411 material-758067IfcMaterialLayerSet758068758069758070758141758155poche cut IfcWall material-poche 1z4jE9eD5CjBem_86cEzQE rPsetCommon-StatusEXISTINGid777867"><path d="M586.8,598.5 L601.1,598.5 L601.1,390.3 L586.8,390.3 Z"/></g></g>
</svg>