<?xml version="1.0" encoding="utf-8" ?>
<svg xmlns="http://www.w3.org/2000/svg" xmlns:ev="http://www.w3.org/2001/xml-events" xmlns:ifc="http://www.ifcopenshell.org/ns" xmlns:xlink="http://www.w3.org/1999/xlink" baseProfile="full" data-scale="1/8&quot;=1'-0&quot;" height="313.54167064030963mm" id="root" version="1.1" viewBox="0 0 313.54167064030963 313.54167064030963" width="313.54167064030963mm">
  <defs/>
  <path class="GlobalId-3KcRGOkzL9aQlSAykTJ_Fu IfcAnnotation PredefinedType-SECTIONLEVEL" d="M 461.63751220703125 184.84585571289062 L -59.19584655761719 184.84585571289062"/>
  <text dominant-baseline="baseline" style="font-size: 0;" text-anchor="start" transform="translate(461.63751220703125, 181.34585571289062) rotate(0.0)">
    <tspan class="SECTIONLEVEL" dy="-1em" x="0" y="0">My Storey</tspan>
    <tspan class="SECTIONLEVEL" dy="0em" x="0" y="0">RL +0&quot;</tspan>
  </text>
  <line class="GlobalId-2$kgvleADEu97JdmIeIekV IfcAnnotation PredefinedType-SECTION" x1="200.9386749267578" x2="200.93869018554688" y1="315.824462890625" y2="-9.175549507141113"/>
  <use transform="rotate(-89.999995674289, 200.9386749267578, 315.824462890625)" x="200.9386749267578" xlink:href="#section-arrow" y="315.824462890625"/>
  <use x="200.9386749267578" xlink:href="#section-tag" y="315.824462890625"/>
  <text class="SECTION" dominant-baseline="middle" text-anchor="middle" x="200.9386749267578" y="313.324462890625">-</text>
  <text class="SECTION" dominant-baseline="middle" text-anchor="middle" x="200.9386749267578" y="318.324462890625">-</text>
  <use transform="rotate(-89.999995674289, 200.93869018554688, -9.175549507141113)" x="200.93869018554688" xlink:href="#section-arrow" y="-9.175549507141113"/>
  <use x="200.93869018554688" xlink:href="#section-tag" y="-9.175549507141113"/>
  <text class="SECTION" dominant-baseline="middle" text-anchor="middle" x="200.93869018554688" y="-11.675549507141113">-</text>
  <text class="SECTION" dominant-baseline="middle" text-anchor="middle" x="200.93869018554688" y="-6.675549507141113">-</text>
</svg>
