<?xml version="1.0" encoding="utf-8" ?>
<svg xmlns="http://www.w3.org/2000/svg" xmlns:ev="http://www.w3.org/2001/xml-events" xmlns:ifc="http://www.ifcopenshell.org/ns" xmlns:xlink="http://www.w3.org/1999/xlink" baseProfile="full" data-scale="3&quot;=1'-0&quot;" height="224.99999403953552mm" id="root" version="1.1" viewBox="0 0 224.99999403953552 224.99999403953552" width="224.99999403953552mm">
  <defs/>
  <path class="GlobalId-3YrNPJ2zb4y9NBqKih5Vur IfcAnnotation PredefinedType-SECTIONLEVEL" d="M -1383.921875 144.2500457763672 L -1608.927978515625 144.2500457763672"/>
  <text dominant-baseline="baseline" style="font-size: 0;" text-anchor="start" transform="translate(-1383.921875, 140.7500457763672) rotate(0.0)">
    <tspan class="SECTIONLEVEL" dy="-1em" x="0" y="0">My Storey</tspan>
    <tspan class="SECTIONLEVEL" dy="0em" x="0" y="0">RL +0&quot;</tspan>
  </text>
  <path class="GlobalId-0HsXpD2pX7MBkLM8WrM7NY IfcAnnotation PredefinedType-TEXTLEADER" d="M 85.41564643383026 92.90128387510777 L 77.92358100414276 92.90128387510777 L 54.92858588695526 109.93635817430913"/>
  <text dominant-baseline="middle" style="font-size: 0;" text-anchor="start" transform="translate(85.4156494140625, 92.90128326416016) rotate(-0.0)">
    <tspan class="GlobalId-0HsXpD2pX7MBkLM8WrM7NY IfcAnnotation PredefinedType-TEXTLEADER" dy="0em" x="0" y="0">5/8&quot; GYP. BD OR CEMENT BACKERBOARD ON WET WALL</tspan>
  </text>
  <path class="GlobalId-1pyn$52TDFVgnDLthge70y IfcAnnotation PredefinedType-TEXTLEADER" d="M 85.41564643383026 104.46416400372982 L 77.92358100414276 104.46416400372982 L 57.43102729320526 121.49923853576183"/>
  <text dominant-baseline="middle" style="font-size: 0;" text-anchor="start" transform="translate(85.4156494140625, 104.46416473388672) rotate(-0.0)">
    <tspan class="GlobalId-1pyn$52TDFVgnDLthge70y IfcAnnotation PredefinedType-TEXTLEADER" dy="0em" x="0" y="0">WALL BASE AS SCHEDULED</tspan>
  </text>
  <path class="GlobalId-1DPBfE2vrDuuxnzp$KeT2W IfcAnnotation PredefinedType-TEXTLEADER" d="M 85.41564643383026 126.84797495603561 L 77.92358100414276 126.84797495603561 L 54.92858588695526 143.88304948806763"/>
  <text dominant-baseline="middle" style="font-size: 0;" text-anchor="start" transform="translate(85.4156494140625, 126.84798431396484) rotate(-0.0)">
    <tspan class="GlobalId-1DPBfE2vrDuuxnzp$KeT2W IfcAnnotation PredefinedType-TEXTLEADER" dy="0em" x="0" y="0">ACOUSTICAL SEALANT OR FIRE SEALANT, IF RATED WALL</tspan>
  </text>
  <path class="GlobalId-3e3qyVWB52NxgwpdPg_fc2 IfcAnnotation PredefinedType-TEXTLEADER fill-bg" d="M 85.41564643383026 152.61300280690193 L 77.92358100414276 152.61300280690193 L 46.49810492992401 144.01113986968994"/>
  <text dominant-baseline="middle" filter="url(#fill-background)" style="font-size: 0;" text-anchor="start" transform="translate(85.4156494140625, 152.61300659179688) rotate(-0.0)">
    <tspan class="GlobalId-3e3qyVWB52NxgwpdPg_fc2 IfcAnnotation PredefinedType-TEXTLEADER fill-bg" dy="0em" x="0" y="0">METAL RUNNER CHANNEL; FASTEN @ 24&quot; O.C.</tspan>
  </text>
  <text dominant-baseline="middle" style="font-size: 0;" text-anchor="start" transform="translate(85.4156494140625, 152.61300659179688) rotate(-0.0)">
    <tspan class="GlobalId-3e3qyVWB52NxgwpdPg_fc2 IfcAnnotation PredefinedType-TEXTLEADER fill-bg" dy="0em" x="0" y="0">METAL RUNNER CHANNEL; FASTEN @ 24&quot; O.C.</tspan>
  </text>
  <path class="GlobalId-2Z1N_aZRXAy8U8LuHm5cKU IfcAnnotation PredefinedType-TEXTLEADER fill-bg" d="M 85.41564643383026 163.1433665752411 L 77.92358100414276 163.1433665752411 L 46.49810492992401 154.5415036380291"/>
  <text dominant-baseline="middle" filter="url(#fill-background)" style="font-size: 0;" text-anchor="start" transform="translate(85.4156494140625, 163.14337158203125) rotate(-0.0)">
    <tspan class="GlobalId-2Z1N_aZRXAy8U8LuHm5cKU IfcAnnotation PredefinedType-TEXTLEADER fill-bg" dy="0em" x="0" y="0">STRUCTURAL FLOOR</tspan>
  </text>
  <text dominant-baseline="middle" style="font-size: 0;" text-anchor="start" transform="translate(85.4156494140625, 163.14337158203125) rotate(-0.0)">
    <tspan class="GlobalId-2Z1N_aZRXAy8U8LuHm5cKU IfcAnnotation PredefinedType-TEXTLEADER fill-bg" dy="0em" x="0" y="0">STRUCTURAL FLOOR</tspan>
  </text>
  <path class="GlobalId-0dOQ4VKwXE$eT85SPbXzgj IfcAnnotation PredefinedType-TEXTLEADER" d="M 85.41564643383026 49.461863934993744 L 77.92358100414276 49.461863934993744 L 48.21471869945526 62.24370747804642"/>
  <text dominant-baseline="middle" style="font-size: 0;" text-anchor="start" transform="translate(85.4156494140625, 49.46186447143555) rotate(-0.0)">
    <tspan class="GlobalId-0dOQ4VKwXE$eT85SPbXzgj IfcAnnotation PredefinedType-TEXTLEADER" dy="0em" x="0" y="0">2X BLOCKING - LOCATED AT GRAB BARS, WALL HUNG CABINETS, ETC</tspan>
  </text>
  <path class="GlobalId-09DAZPPtX3V8KT0zh7gccc IfcAnnotation PredefinedType-TEXTLEADER" d="M 85.41564643383026 77.62353122234344 L 77.92358100414276 77.62353122234344 L 41.76788032054901 97.07623533904552"/>
  <text dominant-baseline="middle" style="font-size: 0;" text-anchor="start" transform="translate(85.4156494140625, 77.62352752685547) rotate(-0.0)">
    <tspan class="GlobalId-09DAZPPtX3V8KT0zh7gccc IfcAnnotation PredefinedType-TEXTLEADER" dy="0em" x="0" y="0">METAL STUD - 20 GA. - 24&quot; O.C.</tspan>
  </text>
  <path class="GlobalId-1JUS0JeX15VQdEF61GTTnv IfcAnnotation PredefinedType-TEXTLEADER" d="M 85.41564643383026 115.92019139789045 L 77.92358100414276 115.92019139789045 L 41.53899848461151 142.22712256014347"/>
  <text dominant-baseline="middle" style="font-size: 0;" text-anchor="start" transform="translate(85.4156494140625, 115.92019653320312) rotate(-0.0)">
    <tspan class="GlobalId-1JUS0JeX15VQdEF61GTTnv IfcAnnotation PredefinedType-TEXTLEADER" dy="0em" x="0" y="0">METAL STUD - 20 GA. - 24&quot; O.C.</tspan>
  </text>
</svg>
