<svg xmlns="http://www.w3.org/2000/svg" xmlns:xlink="http://www.w3.org/1999/xlink" xmlns:ifc="http://www.ifcopenshell.org/ns" width="225mm" height="225mm" viewBox="0 0 225 225">
    <defs>
        <marker id="arrowend" markerWidth="10" markerHeight="7" refX="10" refY="3.5" orient="auto">
          <polygon points="0 0, 10 3.5, 0 7"/>
        </marker>
        <marker id="arrowstart" markerWidth="10" markerHeight="7" refX="0" refY="3.5" orient="auto">
          <polygon points="10 0, 0 3.5, 10 7"/>
        </marker>
    </defs>
    <g ifc:name="Elevation W1 - WALL DETAIL - HEAD" class="section" ifc:plane="[[1.000000,0.000000,0.000000,0.000000],[0.000000,-0.000000,-1.000000,0.762001],[0.000000,1.000000,-0.000000,0.000000],[0.000000,0.000000,0.000000,1.000000]]" ifc:matrix3="[[250.000000,0.000000,-106240.451028],[0.000000,250.000000,677.650050],[0.000000,0.000000,1.000000]]">
        <g class="projection">
            <path d="M60.9268,66.4626 L60.9268,676.063"/>
            <path d="M56.9581,66.4626 L60.9268,66.4626"/>
            <path d="M56.9581,676.063 L56.9581,66.4626"/>
            <path d="M60.9268,676.063 L56.9581,676.063"/>
            <path d="M83.5549,63.6845 L61.3299,63.6845"/>
            <path d="M83.5549,73.6064 L83.5549,63.6845"/>
            <path d="M83.9517,73.6064 L83.5549,73.6064"/>
            <path d="M83.9517,63.2876 L83.9517,73.6064"/>
            <path d="M60.933,63.2876 L83.9517,63.2876"/>
            <path d="M60.933,73.6064 L60.933,63.2876"/>
            <path d="M61.3299,73.6064 L60.933,73.6064"/>
            <path d="M61.3299,63.6845 L61.3299,73.6064"/>
            <path d="M61.3299,64.6053 L63.314,64.6053"/>
            <path d="M61.3297,677.253 L63.314,677.253"/>
            <path d="M63.314,677.253 L63.314,64.6053"/>
            <path d="M61.3297,677.253 L61.3297,73.6064"/>
            <path d="M81.563,64.6053 L83.5473,64.6053"/>
            <path d="M81.563,677.253 L83.5473,677.253"/>
            <path d="M83.5473,677.253 L83.5473,64.6053"/>
            <path d="M81.563,677.253 L81.563,64.6053"/>
            <path d="M63.314,64.6053 L81.563,64.6053"/>
            <path d="M63.314,677.253 L81.563,677.253"/>
            <path d="M84.9704,64.1263 L85.2022,63.6735"/>
            <path d="M84.8511,64.6208 L84.9704,64.1263"/>
            <path d="M84.8511,65.1295 L84.8511,64.6208"/>
            <path d="M84.9704,65.624 L84.8511,65.1295"/>
            <path d="M85.2022,66.0768 L84.9704,65.624"/>
            <path d="M85.5337,66.4626 L85.2022,66.0768"/>
            <path d="M87.915,66.4626 L85.5337,66.4626"/>
            <path d="M87.5835,66.0768 L87.915,66.4626"/>
            <path d="M87.3516,65.624 L87.5835,66.0768"/>
            <path d="M87.2324,65.1295 L87.3516,65.624"/>
            <path d="M87.2324,64.6208 L87.2324,65.1295"/>
            <path d="M87.3516,64.1263 L87.2324,64.6208"/>
            <path d="M87.5835,63.6735 L87.3516,64.1263"/>
            <path d="M87.915,63.2876 L87.5835,63.6735"/>
            <path d="M85.5337,63.2876 L87.915,63.2876"/>
            <path d="M85.2022,63.6735 L85.5337,63.2876"/>
            <path d="M236.209,63.2876 L-114.604,63.2876"/>
            <path d="M236.209,37.8876 L236.209,63.2876"/>
            <path d="M-114.604,37.8876 L236.209,37.8876"/>
            <path d="M-114.604,63.2876 L-114.604,37.8876"/>
            <path d="M59.9059,65.624 L59.6741,66.0767"/>
            <path d="M60.0252,65.1294 L59.9059,65.624"/>
            <path d="M60.0252,64.6207 L60.0252,65.1294"/>
            <path d="M59.9059,64.1262 L60.0252,64.6207"/>
            <path d="M59.6741,63.6734 L59.9059,64.1262"/>
            <path d="M59.3426,63.2876 L59.6741,63.6734"/>
            <path d="M56.9613,63.2876 L59.3426,63.2876"/>
            <path d="M57.2928,63.6734 L56.9613,63.2876"/>
            <path d="M57.5247,64.1262 L57.2928,63.6734"/>
            <path d="M57.6439,64.6207 L57.5247,64.1262"/>
            <path d="M57.6439,65.1294 L57.6439,64.6207"/>
            <path d="M57.5247,65.624 L57.6439,65.1294"/>
            <path d="M57.2928,66.0767 L57.5247,65.624"/>
            <path d="M56.9613,66.4626 L57.2928,66.0767"/>
            <path d="M59.3426,66.4626 L56.9613,66.4626"/>
            <path d="M59.6741,66.0767 L59.3426,66.4626"/>
            <path d="M87.9196,66.4626 L87.9196,676.063"/>
            <path d="M83.9509,66.4626 L87.9196,66.4626"/>
            <path d="M83.9509,676.063 L83.9509,66.4626"/>
            <path d="M87.9196,676.063 L83.9509,676.063"/>
        </g>
    <g id="product-175fc5a6-10ad-4bac-8e63-ba72e4fa9ca9-body" class="IfcBuildingElementProxy material-58GYPBDORCEMENTBACKERBOARDONWETWALL materialCategory-sand cut" ifc:name="Generic Models 138:Generic Models 1:637141" ifc:guid="0NNyMc4ArBh8vZkdBa_fof">
            <path d="M87.9196,676.063 L83.9509,676.063 L83.9509,66.4626 L87.9196,66.4626 L87.9196,676.063"/>
        </g>
        <g id="product-c6b2a621-8c31-466b-921f-13e41109e0ab-body" class="IfcBuildingElementProxy material-ACOUSTICALSEALANTORFIRESEALANTIFRATEDWALL materialCategory-sealant cut" ifc:name="Generic Models 526:Generic Models 1:1579401" ifc:guid="36igOXZ356Qv8V4_GH2U2h">
            <path d="M59.6741,66.0767 L59.3426,66.4626 L56.9613,66.4626 L57.2928,66.0767 L57.5247,65.624 L57.6439,65.1294 L57.6439,64.6207 L57.5247,64.1262 L57.2928,63.6734 L56.9613,63.2876 L59.3426,63.2876 L59.6741,63.6734 L59.9059,64.1262 L60.0252,64.6207 L60.0252,65.1294 L59.9059,65.624 L59.6741,66.0768"/>
        </g>
        <g id="product-8b402e20-1df9-450f-8f31-66ba34ab823a-body" class="IfcBuildingElementProxy material-UNDERSIDEOFFLOORASSEMBLY materialCategory-sand cut" ifc:name="Generic Models 447:Generic Models 1:1577634" ifc:guid="2BG2uW7Vb53uynPheqgu8w">
            <path d="M-114.604,63.2876 L-114.604,37.8876 L236.209,37.8876 L236.209,63.2876 L-114.604,63.2876"/>
        </g>
        <g id="product-2af5e119-2586-463d-9e1c-5a41b24c83d4-body" class="IfcBuildingElementProxy material-ACOUSTICALSEALANTORFIRESEALANTIFRATEDWALL materialCategory-sealant cut" ifc:name="Generic Models 526:Generic Models 1:1579401" ifc:guid="0gzU4P9OP6FPuSMa6oJ8FK">
            <path d="M85.2022,63.6735 L85.5337,63.2876 L87.915,63.2876 L87.5835,63.6735 L87.3516,64.1263 L87.2324,64.6208 L87.2324,65.1295 L87.3516,65.624 L87.5835,66.0768 L87.915,66.4626 L85.5337,66.4626 L85.2022,66.0768 L84.9704,65.624 L84.8511,65.1295 L84.8511,64.6208 L84.9704,64.1263 L85.2022,63.6735"/>
        </g>
        <g id="product-eeb19623-8e9d-4758-989b-bc1403a18333-body" class="IfcBuildingElementProxy material-DEEPLEGOFDEFLECTIONTRACK2MINDEFLECTION materialCategory-steel cut" ifc:name="Generic Models 23:Generic Models 1:426865" ifc:guid="3kiPOZZfr7M9YRl1G3eOCp">
            <path d="M61.3299,63.6845 L61.3299,73.6064 L60.933,73.6064 L60.933,63.2876 L83.9517,63.2876 L83.9517,73.6064 L83.5549,73.6064 L83.5549,63.6845 L61.3299,63.6845"/>
        </g>
        <g id="product-6496e233-85a9-4195-92be-73d032b778dc-body" class="IfcBuildingElementProxy material-58GYPBDORCEMENTBACKERBOARDONWETWALL materialCategory-sand cut" ifc:name="Generic Models 16:Generic Models 1:637269" ifc:guid="1abk8pXQb1bPA_Sz0ojtZS">
            <path d="M60.9268,676.063 L56.9581,676.063 L56.9581,66.4626 L60.9268,66.4626 L60.9268,676.063"/>
        </g>
        </g>
</svg>