<?xml version="1.0" encoding="utf-8" ?>
<svg xmlns="http://www.w3.org/2000/svg" xmlns:ev="http://www.w3.org/2001/xml-events" xmlns:ifc="http://www.ifcopenshell.org/ns" xmlns:xlink="http://www.w3.org/1999/xlink" baseProfile="full" data-scale="3&quot;=1'-0&quot;" height="162.44999569654465mm" id="root" version="1.1" viewBox="0 0 224.99999403953552 162.44999569654465" width="224.99999403953552mm">
  <defs/>
  <path class="GlobalId-1lt3q_C0D9ShYC8yljVj03 IfcAnnotation PredefinedType-SECTIONLEVEL" d="M -100012.6953125 665.425048828125 L -112512.6953125 665.425048828125"/>
  <text dominant-baseline="baseline" style="font-size: 0;" text-anchor="start" transform="translate(-100012.6953125, 661.925048828125) rotate(0.0)">
    <tspan class="SECTIONLEVEL" dy="-1em" x="0" y="0">My Storey</tspan>
    <tspan class="SECTIONLEVEL" dy="0em" x="0" y="0">RL +0&quot;</tspan>
  </text>
  <path class="GlobalId-1iR1qPXQf9TgBoBEZcFbf8 IfcAnnotation PredefinedType-TEXTLEADER" d="M 86.20910346508026 105.058922752738 L 77.24456489086151 105.058922752738 L 50.60271918773651 83.25482820533216"/>
  <text dominant-baseline="baseline" style="font-size: 0;" text-anchor="start" transform="translate(86.2091064453125, 105.05892181396484) rotate(-0.0)">
    <tspan class="GlobalId-1iR1qPXQf9TgBoBEZcFbf8 IfcAnnotation PredefinedType-TEXTLEADER" dy="0em" x="0" y="0">2X WOOD STUD - 24&quot; O.C. </tspan>
    <tspan class="GlobalId-1iR1qPXQf9TgBoBEZcFbf8 IfcAnnotation PredefinedType-TEXTLEADER" dy="1em" x="0" y="0">W4: 2X4 STUD WALL </tspan>
    <tspan class="GlobalId-1iR1qPXQf9TgBoBEZcFbf8 IfcAnnotation PredefinedType-TEXTLEADER" dy="2em" x="0" y="0">W6: 2X6 STUD </tspan>
  </text>
  <path class="GlobalId-2x8mprb7XD5vgfshK3gKD3 IfcAnnotation PredefinedType-TEXTLEADER" d="M 86.20910346508026 81.45441026159097 L 77.24456489086151 81.45441026159097 L 50.64086616039276 56.413187965750694"/>
  <text dominant-baseline="baseline" style="font-size: 0;" text-anchor="start" transform="translate(86.2091064453125, 81.45441436767578) rotate(-0.0)">
    <tspan class="GlobalId-2x8mprb7XD5vgfshK3gKD3 IfcAnnotation PredefinedType-TEXTLEADER" dy="0em" x="0" y="0">2X WOOD TOP PLATE</tspan>
  </text>
  <path class="GlobalId-2FOM3VqG96bRFagGvEbnfx IfcAnnotation PredefinedType-SECTIONLEVEL" d="M 228.15399169921875 665.425048828125 L 3.147885322570801 665.425048828125"/>
  <text dominant-baseline="baseline" style="font-size: 0;" text-anchor="start" transform="translate(228.15399169921875, 661.925048828125) rotate(0.0)">
    <tspan class="SECTIONLEVEL" dy="0em" x="0" y="0">RL +0&quot;</tspan>
  </text>
  <path class="GlobalId-2J_JGzsAPFRvghMqUH3o98 IfcAnnotation PredefinedType-TEXTLEADER" d="M 86.20910346508026 70.25887010991573 L 77.24456489086151 70.25887010991573 L 63.62609565258026 53.66565226018429"/>
  <text dominant-baseline="baseline" style="font-size: 0;" text-anchor="start" transform="translate(86.2091064453125, 70.25887298583984) rotate(-0.0)">
    <tspan class="GlobalId-2J_JGzsAPFRvghMqUH3o98 IfcAnnotation PredefinedType-TEXTLEADER" dy="0em" x="0" y="0">ACOUSTICAL SEALANT OR FIRE SEALANT, IF RATED WALL</tspan>
  </text>
  <path class="GlobalId-2V7rsiS0967RQ61_SAqtIe IfcAnnotation PredefinedType-TEXTLEADER" d="M 86.20910346508026 93.81653307378292 L 77.24456489086151 93.81653307378292 L 63.29803168773651 81.64693327876739"/>
  <text dominant-baseline="baseline" style="font-size: 0;" text-anchor="start" transform="translate(86.2091064453125, 93.81653594970703) rotate(-0.0)">
    <tspan class="GlobalId-2V7rsiS0967RQ61_SAqtIe IfcAnnotation PredefinedType-TEXTLEADER" dy="0em" x="0" y="0">5/8&quot; GYP. BD OR CEMENT BACKERBOARD ON WET WALL</tspan>
  </text>
  <path class="GlobalId-2UDzkHs5T1nfZrGczz8HTU IfcAnnotation PredefinedType-TEXTLEADER" d="M 86.20910346508026 58.88439653813839 L 77.24456489086151 58.88451574742794 L 70.62987983226776 51.05997560918331"/>
  <text dominant-baseline="baseline" style="font-size: 0;" text-anchor="start" transform="translate(86.2091064453125, 58.884395599365234) rotate(-0.0)">
    <tspan class="GlobalId-2UDzkHs5T1nfZrGczz8HTU IfcAnnotation PredefinedType-TEXTLEADER" dy="0em" x="0" y="0">UNDERSIDE OF FLOOR ASSEMBLY </tspan>
  </text>
</svg>
